Thu Feb 28 10:08:27 EST 2019
GPU block size: 4x4
screenx | screeny |    NFrames |        FPS |    TotTime
    500 |     500 |        629 |        165 |       3.81
   1000 |    1000 |        629 |       45.5 |       13.8
   1500 |    1500 |        629 |       20.3 |       30.9
   2000 |    2000 |        629 |       11.8 |       53.3
   2500 |    2500 |        629 |       7.59 |       82.9
   3000 |    3000 |        629 |       5.03 |        125
   3500 |    3500 |        629 |       3.55 |        177
   4000 |    4000 |        629 |       2.68 |        234
GPU block size: 8x8
screenx | screeny |    NFrames |        FPS |    TotTime
    500 |     500 |        629 |        199 |       3.16
   1000 |    1000 |        629 |         58 |       10.9
   1500 |    1500 |        629 |       25.4 |       24.8
   2000 |    2000 |        629 |         15 |       42.1
   2500 |    2500 |        629 |       9.71 |       64.8
   3000 |    3000 |        629 |       6.32 |       99.5
   3500 |    3500 |        629 |       4.44 |        142
   4000 |    4000 |        629 |       3.33 |        189
GPU block size: 16x16
screenx | screeny |    NFrames |        FPS |    TotTime
    500 |     500 |        629 |        195 |       3.23
   1000 |    1000 |        629 |         56 |       11.2
   1500 |    1500 |        629 |       25.3 |       24.9
   2000 |    2000 |        629 |       14.9 |       42.4
   2500 |    2500 |        629 |        9.7 |       64.8
   3000 |    3000 |        629 |       6.44 |       97.6
   3500 |    3500 |        629 |       4.37 |        144
   4000 |    4000 |        629 |        3.3 |        191
GPU block size: 32x32
screenx | screeny |    NFrames |        FPS |    TotTime
    500 |     500 |        629 |        184 |       3.41
   1000 |    1000 |        629 |       51.7 |       12.2
   1500 |    1500 |        629 |       24.5 |       25.7
   2000 |    2000 |        629 |       14.2 |       44.2
   2500 |    2500 |        629 |       9.22 |       68.2
   3000 |    3000 |        629 |        6.1 |        103
   3500 |    3500 |        629 |       4.26 |        148
   4000 |    4000 |        629 |       3.29 |        191
OpenMP 8 Threads
screenx | screeny |    NFrames |        FPS |    TotTime
    500 |     500 |        629 |       9.19 |       68.5
   1000 |    1000 |        629 |        2.3 |        274
   1500 |    1500 |        629 |          1 |        628
   2000 |    2000 |        629 |      0.551 |   1.14e+03
   2500 |    2500 |        629 |      0.358 |   1.76e+03
   3000 |    3000 |        629 |      0.243 |   2.59e+03
   3500 |    3500 |        629 |      0.177 |   3.56e+03
   4000 |    4000 |        629 |      0.136 |   4.64e+03
Thu Feb 28 14:54:27 EST 2019
