2 nodes
screenx | screeny |    NFrames |        FPS |    TotTime
    500 |     500 |        315 |       14.4 |       21.9
    500 |     500 |        315 |       14.3 |         22
   1000 |    1000 |        315 |       9.01 |       34.9
   1000 |    1000 |        315 |       8.93 |       35.3
   1500 |    1500 |        315 |       5.69 |       55.4
   1500 |    1500 |        315 |       5.59 |       56.3
   2000 |    2000 |        315 |       3.66 |         86
   2000 |    2000 |        315 |       3.66 |       86.1
   2500 |    2500 |        315 |       2.44 |        129
   2500 |    2500 |        315 |       2.43 |        130
   3000 |    3000 |        315 |       1.73 |        182
   3000 |    3000 |        315 |       1.73 |        183
   3500 |    3500 |        315 |       1.29 |        245
   3500 |    3500 |        315 |       1.28 |        245
   4000 |    4000 |        315 |          1 |        315
   4000 |    4000 |        315 |      0.997 |        316
3 nodes
screenx | screeny |    NFrames |        FPS |    TotTime
    500 |     500 |        210 |         15 |         14
    500 |     500 |        210 |       14.6 |       14.4
    500 |     500 |        210 |       13.8 |       15.2
   1000 |    1000 |        210 |       9.39 |       22.4
   1000 |    1000 |        210 |       9.38 |       22.4
   1000 |    1000 |        210 |       8.31 |       25.3
   1500 |    1500 |        210 |       5.94 |       35.3
   1500 |    1500 |        210 |        5.9 |       35.6
   1500 |    1500 |        210 |       5.19 |       40.5
   2000 |    2000 |        210 |       3.89 |         54
   2000 |    2000 |        210 |       3.88 |       54.1
   2000 |    2000 |        210 |       3.32 |       63.3
   2500 |    2500 |        210 |       2.58 |       81.5
   2500 |    2500 |        210 |       2.57 |       81.6
   2500 |    2500 |        210 |       2.19 |       95.9
   3000 |    3000 |        210 |       1.83 |        115
   3000 |    3000 |        210 |       1.82 |        115
   3000 |    3000 |        210 |       1.55 |        136
   3500 |    3500 |        210 |       1.36 |        154
   3500 |    3500 |        210 |       1.36 |        155
   3500 |    3500 |        210 |       1.15 |        182
   4000 |    4000 |        210 |       1.06 |        199
   4000 |    4000 |        210 |       1.05 |        199
   4000 |    4000 |        210 |        0.9 |        233
